<svg xmlns="http://www.w3.org/2000/svg"
  viewBox="-247 -145 640 291">
  <path
    vector-effect="non-scaling-stroke"
    fill-opacity="0"
    stroke-linecap="round"
    stroke-linejoin="round"
    stroke-width="1.455"
    stroke="#e7e7e7"
    d="M 0.000,109.091 L 0.000,-109.091"/>
  <path
    vector-effect="non-scaling-stroke"
    fill-opacity="0"
    stroke-linecap="round"
    stroke-linejoin="round"
    stroke-width="1.455"
    stroke="#e7e7e7"
    d="M 145.455,109.091 L 145.455,-109.091"/>
  <path
    vector-effect="non-scaling-stroke"
    fill-opacity="0"
    stroke-linecap="round"
    stroke-linejoin="round"
    stroke-width="1.455"
    stroke="#e7e7e7"
    d="M 218.182,109.091 L 218.182,-109.091"/>
  <g>
    <path
      vector-effect="non-scaling-stroke"
      fill-opacity="0"
      stroke-linecap="round"
      stroke-linejoin="round"
      stroke-width="14.545"
      stroke="#df813c"
      d="M -21.818,0.000 L 21.818,0.000"/>
    <animateTransform
      attributeName="transform"
      type="translate"
      additive="sum"
      repeatCount="indefinite"
      dur="10.000s"
      keyTimes="0.000; 0.002; 0.006; 0.018; 0.024; 0.030; 0.038; 0.084; 0.253;
        0.255; 0.259; 0.269; 0.275; 0.281; 0.289; 0.333; 0.503; 0.507; 0.519;
        0.525; 0.531; 0.539; 0.585; 0.754; 0.756; 0.760; 0.770; 0.776; 0.782;
        0.790; 0.834; 1.000"
      values="-212.987,0; -212.899,0; -212.127,0; -207.783,0; -206.200,0;
        -205.300,0; -204.871,0; -205.210,0; -205.292,0; -205.611,0; -206.811,0;
        -210.527,0; -212.068,0; -212.927,0; -213.321,0; -212.971,0; -212.899,0;
        -212.127,0; -207.784,0; -206.201,0; -205.300,0; -204.871,0; -205.210,0;
        -205.292,0; -205.611,0; -206.811,0; -210.527,0; -212.068,0; -212.927,0;
        -213.321,0; -212.971,0; -212.987,0"/>
    <animateTransform
      attributeName="transform"
      type="rotate"
      additive="sum"
      repeatCount="indefinite"
      dur="10.000s"
      keyTimes="0.000; 0.002; 0.004; 0.006; 0.008; 0.016; 0.020; 0.022; 0.024;
        0.026; 0.028; 0.032; 0.036; 0.042; 0.066; 0.102; 0.251; 0.253; 0.255;
        0.257; 0.259; 0.265; 0.267; 0.269; 0.271; 0.273; 0.275; 0.279; 0.283;
        0.287; 0.293; 0.319; 0.501; 0.503; 0.505; 0.507; 0.509; 0.513; 0.517;
        0.521; 0.523; 0.525; 0.527; 0.529; 0.533; 0.537; 0.543; 0.567; 0.603;
        0.752; 0.754; 0.756; 0.758; 0.760; 0.766; 0.768; 0.770; 0.772; 0.774;
        0.776; 0.780; 0.784; 0.788; 0.794; 0.820; 1.000"
      values="-76.226; -75.987; -75.201; -73.889; -72.126; -63.544; -59.709;
        -58.089; -56.691; -55.519; -54.564; -53.244; -52.564; -52.331; -53.393;
        -53.478; -53.470; -53.788; -54.819; -56.489; -58.590; -65.483; -67.575;
        -69.460; -71.116; -72.536; -73.726; -75.470; -76.505; -77.015; -77.162;
        -76.250; -76.226; -75.987; -75.201; -73.889; -72.128; -67.895; -63.547;
        -59.711; -58.091; -56.693; -55.520; -54.565; -53.245; -52.565; -52.331;
        -53.393; -53.478; -53.470; -53.788; -54.819; -56.489; -58.590; -65.483;
        -67.575; -69.460; -71.116; -72.536; -73.726; -75.470; -76.505; -77.015;
        -77.162; -76.250; -76.226"/>
  </g>
  <g>
    <path
      vector-effect="non-scaling-stroke"
      fill-opacity="0"
      stroke-linecap="round"
      stroke-linejoin="round"
      stroke-width="14.545"
      stroke="#df813c"
      d="M -21.818,0.000 L 21.818,0.000"/>
    <animateTransform
      attributeName="transform"
      type="translate"
      additive="sum"
      repeatCount="indefinite"
      dur="10.000s"
      keyTimes="0.000; 0.002; 0.004; 0.006; 0.008; 0.012; 0.016; 0.018; 0.020;
        0.022; 0.024; 0.026; 0.028; 0.030; 0.032; 0.034; 0.038; 0.044; 0.064;
        0.080; 0.251; 0.253; 0.255; 0.257; 0.259; 0.265; 0.267; 0.269; 0.271;
        0.273; 0.275; 0.277; 0.279; 0.281; 0.283; 0.285; 0.289; 0.295; 0.313;
        0.329; 0.501; 0.503; 0.505; 0.507; 0.509; 0.513; 0.517; 0.519; 0.521;
        0.523; 0.525; 0.527; 0.529; 0.531; 0.533; 0.535; 0.539; 0.545; 0.565;
        0.581; 0.752; 0.754; 0.756; 0.758; 0.760; 0.766; 0.768; 0.770; 0.772;
        0.774; 0.776; 0.778; 0.780; 0.782; 0.784; 0.786; 0.790; 0.796; 0.814;
        0.830; 1.000"
      values="-192.208,0; -191.766,0; -190.317,0; -187.909,0; -184.700,0;
        -177.127,0; -169.581,0; -166.190,0; -163.157,0; -160.515,0; -158.274,0;
        -156.421,0; -154.931,0; -153.771,0; -152.901,0; -152.280,0; -151.627,0;
        -151.588,0; -153.050,0; -153.326,0; -153.247,0; -153.733,0; -155.327,0;
        -157.953,0; -161.328,0; -172.913,0; -176.566,0; -179.906,0; -182.874,0;
        -185.443,0; -187.610,0; -189.390,0; -190.812,0; -191.910,0; -192.725,0;
        -193.297,0; -193.878,0; -193.855,0; -192.479,0; -192.129,0; -192.208,0;
        -191.766,0; -190.317,0; -187.909,0; -184.702,0; -177.131,0; -169.586,0;
        -166.194,0; -163.161,0; -160.519,0; -158.278,0; -156.424,0; -154.934,0;
        -153.773,0; -152.902,0; -152.281,0; -151.627,0; -151.588,0; -153.050,0;
        -153.326,0; -153.247,0; -153.733,0; -155.327,0; -157.953,0; -161.328,0;
        -172.913,0; -176.566,0; -179.906,0; -182.874,0; -185.443,0; -187.610,0;
        -189.390,0; -190.812,0; -191.910,0; -192.725,0; -193.297,0; -193.878,0;
        -193.855,0; -192.479,0; -192.129,0; -192.208,0"/>
    <animateTransform
      attributeName="transform"
      type="rotate"
      additive="sum"
      repeatCount="indefinite"
      dur="10.000s"
      keyTimes="0.000; 0.002; 0.004; 0.006; 0.008; 0.016; 0.020; 0.022; 0.024;
        0.026; 0.028; 0.032; 0.036; 0.042; 0.066; 0.102; 0.251; 0.253; 0.255;
        0.257; 0.259; 0.265; 0.267; 0.269; 0.271; 0.273; 0.275; 0.279; 0.283;
        0.287; 0.293; 0.319; 0.501; 0.503; 0.505; 0.507; 0.509; 0.513; 0.517;
        0.521; 0.523; 0.525; 0.527; 0.529; 0.533; 0.537; 0.543; 0.567; 0.603;
        0.752; 0.754; 0.756; 0.758; 0.760; 0.766; 0.768; 0.770; 0.772; 0.774;
        0.776; 0.780; 0.784; 0.788; 0.794; 0.820; 1.000"
      values="-76.226; -75.987; -75.201; -73.889; -72.126; -63.544; -59.709;
        -58.089; -56.691; -55.519; -54.564; -53.244; -52.564; -52.331; -53.393;
        -53.478; -53.470; -53.788; -54.819; -56.489; -58.590; -65.483; -67.575;
        -69.460; -71.116; -72.536; -73.726; -75.470; -76.505; -77.015; -77.162;
        -76.250; -76.226; -75.987; -75.201; -73.889; -72.128; -67.895; -63.547;
        -59.711; -58.091; -56.693; -55.520; -54.565; -53.245; -52.565; -52.331;
        -53.393; -53.478; -53.470; -53.788; -54.819; -56.489; -58.590; -65.483;
        -67.575; -69.460; -71.116; -72.536; -73.726; -75.470; -76.505; -77.015;
        -77.162; -76.250; -76.226"/>
  </g>
  <g>
    <path
      vector-effect="non-scaling-stroke"
      fill-opacity="0"
      stroke-linecap="round"
      stroke-linejoin="round"
      stroke-width="14.545"
      stroke="#df813c"
      d="M -21.818,0.000 L 21.818,0.000"/>
    <animateTransform
      attributeName="transform"
      type="translate"
      additive="sum"
      repeatCount="indefinite"
      dur="10.000s"
      keyTimes="0.000; 0.002; 0.004; 0.006; 0.008; 0.010; 0.014; 0.016; 0.018;
        0.020; 0.022; 0.024; 0.026; 0.028; 0.030; 0.032; 0.034; 0.036; 0.038;
        0.042; 0.048; 0.060; 0.070; 0.088; 0.251; 0.253; 0.255; 0.257; 0.259;
        0.261; 0.265; 0.267; 0.269; 0.271; 0.273; 0.275; 0.277; 0.279; 0.281;
        0.283; 0.285; 0.287; 0.289; 0.293; 0.299; 0.311; 0.321; 0.339; 0.501;
        0.503; 0.505; 0.507; 0.509; 0.511; 0.515; 0.517; 0.519; 0.521; 0.523;
        0.525; 0.527; 0.529; 0.531; 0.533; 0.535; 0.537; 0.539; 0.543; 0.549;
        0.561; 0.571; 0.589; 0.752; 0.754; 0.756; 0.758; 0.760; 0.762; 0.766;
        0.768; 0.770; 0.772; 0.774; 0.776; 0.778; 0.780; 0.782; 0.784; 0.786;
        0.788; 0.790; 0.794; 0.800; 0.812; 0.822; 0.840; 1.000"
      values="-171.429,0; -170.633,0; -168.024,0; -163.691,0; -157.914,0;
        -151.276,0; -137.328,0; -130.700,0; -124.596,0; -119.136,0; -114.382,0;
        -110.348,0; -107.013,0; -104.331,0; -102.242,0; -100.676,0; -99.559,0;
        -98.818,0; -98.383,0; -98.184,0; -98.816,0; -100.566,0; -101.284,0;
        -101.407,0; -101.299,0; -102.174,0; -105.043,0; -109.770,0; -115.844,0;
        -122.664,0; -136.699,0; -143.274,0; -149.286,0; -154.629,0; -159.253,0;
        -163.153,0; -166.357,0; -168.916,0; -170.892,0; -172.359,0; -173.390,0;
        -174.059,0; -174.434,0; -174.550,0; -173.860,0; -172.116,0; -171.426,0;
        -171.323,0; -171.429,0; -170.633,0; -168.024,0; -163.691,0; -157.918,0;
        -151.283,0; -137.336,0; -130.709,0; -124.604,0; -119.144,0; -114.390,0;
        -110.354,0; -107.018,0; -104.336,0; -102.246,0; -100.679,0; -99.561,0;
        -98.819,0; -98.384,0; -98.184,0; -98.816,0; -100.566,0; -101.284,0;
        -101.407,0; -101.299,0; -102.174,0; -105.043,0; -109.770,0; -115.844,0;
        -122.664,0; -136.699,0; -143.274,0; -149.286,0; -154.629,0; -159.253,0;
        -163.153,0; -166.357,0; -168.916,0; -170.892,0; -172.359,0; -173.390,0;
        -174.059,0; -174.434,0; -174.550,0; -173.860,0; -172.116,0; -171.426,0;
        -171.323,0; -171.429,0"/>
    <animateTransform
      attributeName="transform"
      type="rotate"
      additive="sum"
      repeatCount="indefinite"
      dur="10.000s"
      keyTimes="0.000; 0.002; 0.004; 0.006; 0.008; 0.016; 0.020; 0.022; 0.024;
        0.026; 0.028; 0.032; 0.036; 0.042; 0.066; 0.102; 0.251; 0.253; 0.255;
        0.257; 0.259; 0.265; 0.267; 0.269; 0.271; 0.273; 0.275; 0.279; 0.283;
        0.287; 0.293; 0.319; 0.501; 0.503; 0.505; 0.507; 0.509; 0.513; 0.517;
        0.521; 0.523; 0.525; 0.527; 0.529; 0.533; 0.537; 0.543; 0.567; 0.603;
        0.752; 0.754; 0.756; 0.758; 0.760; 0.766; 0.768; 0.770; 0.772; 0.774;
        0.776; 0.780; 0.784; 0.788; 0.794; 0.820; 1.000"
      values="-76.226; -75.987; -75.201; -73.889; -72.126; -63.544; -59.709;
        -58.089; -56.691; -55.519; -54.564; -53.244; -52.564; -52.331; -53.393;
        -53.478; -53.470; -53.788; -54.819; -56.489; -58.590; -65.483; -67.575;
        -69.460; -71.116; -72.536; -73.726; -75.470; -76.505; -77.015; -77.162;
        -76.250; -76.226; -75.987; -75.201; -73.889; -72.128; -67.895; -63.547;
        -59.711; -58.091; -56.693; -55.520; -54.565; -53.245; -52.565; -52.331;
        -53.393; -53.478; -53.470; -53.788; -54.819; -56.489; -58.590; -65.483;
        -67.575; -69.460; -71.116; -72.536; -73.726; -75.470; -76.505; -77.015;
        -77.162; -76.250; -76.226"/>
  </g>
  <g>
    <path
      vector-effect="non-scaling-stroke"
      fill-opacity="0"
      stroke-linecap="round"
      stroke-linejoin="round"
      stroke-width="14.545"
      stroke="#df813c"
      d="M -21.818,0.000 L 21.818,0.000"/>
    <animateTransform
      attributeName="transform"
      type="translate"
      additive="sum"
      repeatCount="indefinite"
      dur="10.000s"
      keyTimes="0.000; 0.002; 0.004; 0.006; 0.008; 0.010; 0.014; 0.016; 0.018;
        0.020; 0.022; 0.024; 0.026; 0.028; 0.030; 0.032; 0.034; 0.036; 0.038;
        0.040; 0.044; 0.052; 0.060; 0.068; 0.078; 0.140; 0.251; 0.253; 0.255;
        0.257; 0.259; 0.261; 0.265; 0.267; 0.269; 0.271; 0.273; 0.275; 0.277;
        0.279; 0.281; 0.283; 0.285; 0.287; 0.289; 0.291; 0.295; 0.309; 0.317;
        0.327; 0.399; 0.501; 0.503; 0.505; 0.507; 0.509; 0.511; 0.515; 0.517;
        0.519; 0.521; 0.523; 0.525; 0.527; 0.529; 0.531; 0.533; 0.535; 0.537;
        0.539; 0.541; 0.545; 0.553; 0.561; 0.569; 0.579; 0.641; 0.752; 0.754;
        0.756; 0.758; 0.760; 0.762; 0.766; 0.768; 0.770; 0.772; 0.774; 0.776;
        0.778; 0.780; 0.782; 0.784; 0.786; 0.788; 0.790; 0.792; 0.796; 0.810;
        0.818; 0.828; 0.900; 1.000"
      values="-150.649,0; -149.500,0; -145.732,0; -139.473,0; -131.128,0;
        -121.540,0; -101.393,0; -91.819,0; -83.002,0; -75.116,0; -68.249,0;
        -62.422,0; -57.604,0; -53.731,0; -50.713,0; -48.451,0; -46.837,0;
        -45.767,0; -45.139,0; -44.861,0; -45.038,0; -46.680,0; -48.292,0;
        -49.205,0; -49.550,0; -49.349,0; -49.351,0; -50.615,0; -54.760,0;
        -61.587,0; -70.361,0; -80.211,0; -100.484,0; -109.981,0; -118.666,0;
        -126.383,0; -133.062,0; -138.696,0; -143.324,0; -147.020,0; -149.875,0;
        -151.993,0; -153.483,0; -154.449,0; -154.991,0; -155.201,0; -154.933,0;
        -151.978,0; -150.918,0; -150.464,0; -150.649,0; -150.649,0; -149.500,0;
        -145.732,0; -139.473,0; -131.134,0; -121.550,0; -101.405,0; -91.832,0;
        -83.014,0; -75.127,0; -68.260,0; -62.431,0; -57.612,0; -53.737,0;
        -50.719,0; -48.455,0; -46.841,0; -45.769,0; -45.141,0; -44.862,0;
        -45.038,0; -46.679,0; -48.292,0; -49.205,0; -49.550,0; -49.349,0;
        -49.351,0; -50.615,0; -54.760,0; -61.587,0; -70.361,0; -80.211,0;
        -100.484,0; -109.981,0; -118.666,0; -126.383,0; -133.062,0; -138.696,0;
        -143.324,0; -147.020,0; -149.875,0; -151.993,0; -153.483,0; -154.449,0;
        -154.991,0; -155.201,0; -154.933,0; -151.978,0; -150.918,0; -150.464,0;
        -150.649,0; -150.649,0"/>
    <animateTransform
      attributeName="transform"
      type="rotate"
      additive="sum"
      repeatCount="indefinite"
      dur="10.000s"
      keyTimes="0.000; 0.002; 0.004; 0.006; 0.008; 0.016; 0.020; 0.022; 0.024;
        0.026; 0.028; 0.032; 0.036; 0.042; 0.066; 0.102; 0.251; 0.253; 0.255;
        0.257; 0.259; 0.265; 0.267; 0.269; 0.271; 0.273; 0.275; 0.279; 0.283;
        0.287; 0.293; 0.319; 0.501; 0.503; 0.505; 0.507; 0.509; 0.513; 0.517;
        0.521; 0.523; 0.525; 0.527; 0.529; 0.533; 0.537; 0.543; 0.567; 0.603;
        0.752; 0.754; 0.756; 0.758; 0.760; 0.766; 0.768; 0.770; 0.772; 0.774;
        0.776; 0.780; 0.784; 0.788; 0.794; 0.820; 1.000"
      values="-76.226; -75.987; -75.201; -73.889; -72.126; -63.544; -59.709;
        -58.089; -56.691; -55.519; -54.564; -53.244; -52.564; -52.331; -53.393;
        -53.478; -53.470; -53.788; -54.819; -56.489; -58.590; -65.483; -67.575;
        -69.460; -71.116; -72.536; -73.726; -75.470; -76.505; -77.015; -77.162;
        -76.250; -76.226; -75.987; -75.201; -73.889; -72.128; -67.895; -63.547;
        -59.711; -58.091; -56.693; -55.520; -54.565; -53.245; -52.565; -52.331;
        -53.393; -53.478; -53.470; -53.788; -54.819; -56.489; -58.590; -65.483;
        -67.575; -69.460; -71.116; -72.536; -73.726; -75.470; -76.505; -77.015;
        -77.162; -76.250; -76.226"/>
  </g>
  <g>
    <path
      vector-effect="non-scaling-stroke"
      fill-opacity="0"
      stroke-linecap="round"
      stroke-linejoin="round"
      stroke-width="14.545"
      stroke="#df813c"
      d="M -21.818,0.000 L 21.818,0.000"/>
    <animateTransform
      attributeName="transform"
      type="translate"
      additive="sum"
      repeatCount="indefinite"
      dur="10.000s"
      keyTimes="0.000; 0.002; 0.004; 0.006; 0.008; 0.010; 0.014; 0.016; 0.018;
        0.020; 0.022; 0.024; 0.026; 0.028; 0.030; 0.032; 0.034; 0.036; 0.038;
        0.040; 0.042; 0.046; 0.058; 0.064; 0.072; 0.084; 0.124; 0.251; 0.253;
        0.255; 0.257; 0.259; 0.261; 0.263; 0.265; 0.267; 0.269; 0.271; 0.273;
        0.275; 0.277; 0.279; 0.281; 0.283; 0.285; 0.287; 0.289; 0.291; 0.293;
        0.297; 0.309; 0.315; 0.323; 0.335; 0.375; 0.501; 0.503; 0.505; 0.507;
        0.509; 0.511; 0.515; 0.517; 0.519; 0.521; 0.523; 0.525; 0.527; 0.529;
        0.531; 0.533; 0.535; 0.537; 0.539; 0.541; 0.543; 0.547; 0.559; 0.565;
        0.573; 0.585; 0.625; 0.752; 0.754; 0.756; 0.758; 0.760; 0.762; 0.764;
        0.766; 0.768; 0.770; 0.772; 0.774; 0.776; 0.778; 0.780; 0.782; 0.784;
        0.786; 0.788; 0.790; 0.792; 0.794; 0.798; 0.810; 0.816; 0.824; 0.836;
        0.876; 1.000"
      values="-129.870,0; -128.367,0; -123.440,0; -115.255,0; -104.343,0;
        -91.805,0; -65.457,0; -52.938,0; -41.408,0; -31.096,0; -22.116,0;
        -14.496,0; -8.196,0; -3.130,0; 0.815,0; 3.774,0; 5.884,0; 7.284,0;
        8.105,0; 8.468,0; 8.481,0; 7.817,0; 4.431,0; 3.267,0; 2.504,0; 2.346,0;
        2.609,0; 2.597,0; 0.944,0; -4.476,0; -13.404,0; -24.878,0; -37.759,0;
        -51.124,0; -64.269,0; -76.689,0; -88.045,0; -98.137,0; -106.871,0;
        -114.238,0; -120.291,0; -125.124,0; -128.857,0; -131.627,0; -133.575,0;
        -134.838,0; -135.548,0; -135.822,0; -135.766,0; -135.017,0; -131.608,0;
        -130.477,0; -129.753,0; -129.621,0; -129.881,0; -129.870,0; -128.367,0;
        -123.440,0; -115.255,0; -104.350,0; -91.817,0; -65.474,0; -52.955,0;
        -41.424,0; -31.111,0; -22.130,0; -14.508,0; -8.206,0; -3.139,0;
        0.808,0; 3.768,0; 5.880,0; 7.281,0; 8.103,0; 8.467,0; 8.480,0; 7.818,0;
        4.432,0; 3.267,0; 2.504,0; 2.346,0; 2.609,0; 2.597,0; 0.944,0;
        -4.476,0; -13.404,0; -24.878,0; -37.759,0; -51.124,0; -64.269,0;
        -76.689,0; -88.045,0; -98.137,0; -106.871,0; -114.238,0; -120.291,0;
        -125.124,0; -128.857,0; -131.627,0; -133.575,0; -134.838,0; -135.548,0;
        -135.822,0; -135.766,0; -135.017,0; -131.608,0; -130.477,0; -129.753,0;
        -129.621,0; -129.881,0; -129.870,0"/>
    <animateTransform
      attributeName="transform"
      type="rotate"
      additive="sum"
      repeatCount="indefinite"
      dur="10.000s"
      keyTimes="0.000; 0.002; 0.004; 0.006; 0.008; 0.016; 0.020; 0.022; 0.024;
        0.026; 0.028; 0.032; 0.036; 0.042; 0.066; 0.102; 0.251; 0.253; 0.255;
        0.257; 0.259; 0.265; 0.267; 0.269; 0.271; 0.273; 0.275; 0.279; 0.283;
        0.287; 0.293; 0.319; 0.501; 0.503; 0.505; 0.507; 0.509; 0.513; 0.517;
        0.521; 0.523; 0.525; 0.527; 0.529; 0.533; 0.537; 0.543; 0.567; 0.603;
        0.752; 0.754; 0.756; 0.758; 0.760; 0.766; 0.768; 0.770; 0.772; 0.774;
        0.776; 0.780; 0.784; 0.788; 0.794; 0.820; 1.000"
      values="-76.226; -75.987; -75.201; -73.889; -72.126; -63.544; -59.709;
        -58.089; -56.691; -55.519; -54.564; -53.244; -52.564; -52.331; -53.393;
        -53.478; -53.470; -53.788; -54.819; -56.489; -58.590; -65.483; -67.575;
        -69.460; -71.116; -72.536; -73.726; -75.470; -76.505; -77.015; -77.162;
        -76.250; -76.226; -75.987; -75.201; -73.889; -72.128; -67.895; -63.547;
        -59.711; -58.091; -56.693; -55.520; -54.565; -53.245; -52.565; -52.331;
        -53.393; -53.478; -53.470; -53.788; -54.819; -56.489; -58.590; -65.483;
        -67.575; -69.460; -71.116; -72.536; -73.726; -75.470; -76.505; -77.015;
        -77.162; -76.250; -76.226"/>
  </g>
  <g>
    <path
      vector-effect="non-scaling-stroke"
      fill-opacity="0"
      stroke-linecap="round"
      stroke-linejoin="round"
      stroke-width="14.545"
      stroke="#df813c"
      d="M -21.818,0.000 L 21.818,0.000"/>
    <animateTransform
      attributeName="transform"
      type="translate"
      additive="sum"
      repeatCount="indefinite"
      dur="10.000s"
      keyTimes="0.000; 0.002; 0.004; 0.006; 0.008; 0.010; 0.014; 0.016; 0.018;
        0.020; 0.022; 0.024; 0.026; 0.028; 0.030; 0.032; 0.034; 0.036; 0.038;
        0.040; 0.042; 0.044; 0.048; 0.058; 0.064; 0.070; 0.078; 0.122; 0.251;
        0.253; 0.255; 0.257; 0.259; 0.261; 0.263; 0.265; 0.267; 0.269; 0.271;
        0.273; 0.275; 0.277; 0.279; 0.281; 0.283; 0.285; 0.287; 0.289; 0.291;
        0.293; 0.297; 0.307; 0.313; 0.319; 0.327; 0.377; 0.501; 0.503; 0.505;
        0.507; 0.509; 0.511; 0.515; 0.517; 0.519; 0.521; 0.523; 0.525; 0.527;
        0.529; 0.531; 0.533; 0.535; 0.537; 0.539; 0.541; 0.543; 0.545; 0.549;
        0.559; 0.565; 0.571; 0.579; 0.625; 0.752; 0.754; 0.756; 0.758; 0.760;
        0.762; 0.764; 0.766; 0.768; 0.770; 0.772; 0.774; 0.776; 0.778; 0.780;
        0.782; 0.784; 0.786; 0.788; 0.790; 0.792; 0.794; 0.798; 0.808; 0.814;
        0.820; 0.828; 0.878; 1.000"
      values="-109.091,0; -107.235,0; -101.148,0; -91.036,0; -77.557,0;
        -62.069,0; -29.522,0; -14.057,0; 0.186,0; 12.924,0; 24.017,0; 33.430,0;
        41.213,0; 47.470,0; 52.344,0; 55.999,0; 58.605,0; 60.335,0; 61.349,0;
        61.797,0; 61.813,0; 61.513,0; 60.338,0; 56.811,0; 55.373,0; 54.579,0;
        54.224,0; 54.560,0; 54.545,0; 52.503,0; 45.808,0; 34.779,0; 20.606,0;
        4.694,0; -11.816,0; -28.054,0; -43.396,0; -57.425,0; -69.891,0;
        -80.680,0; -89.781,0; -97.258,0; -103.228,0; -107.839,0; -111.261,0;
        -113.668,0; -115.228,0; -116.104,0; -116.443,0; -116.374,0; -115.449,0;
        -111.854,0; -110.229,0; -109.275,0; -108.792,0; -109.103,0; -109.091,0;
        -107.235,0; -101.148,0; -91.037,0; -77.566,0; -62.084,0; -29.542,0;
        -14.078,0; 0.166,0; 12.906,0; 24.000,0; 33.416,0; 41.200,0; 47.459,0;
        52.336,0; 55.992,0; 58.600,0; 60.331,0; 61.346,0; 61.796,0; 61.812,0;
        61.512,0; 60.338,0; 56.811,0; 55.373,0; 54.579,0; 54.224,0; 54.559,0;
        54.545,0; 52.503,0; 45.808,0; 34.779,0; 20.606,0; 4.694,0; -11.816,0;
        -28.054,0; -43.396,0; -57.425,0; -69.891,0; -80.680,0; -89.781,0;
        -97.258,0; -103.228,0; -107.839,0; -111.261,0; -113.668,0; -115.228,0;
        -116.104,0; -116.443,0; -116.374,0; -115.449,0; -111.854,0; -110.229,0;
        -109.275,0; -108.792,0; -109.103,0; -109.091,0"/>
    <animateTransform
      attributeName="transform"
      type="rotate"
      additive="sum"
      repeatCount="indefinite"
      dur="10.000s"
      keyTimes="0.000; 0.002; 0.004; 0.006; 0.008; 0.016; 0.020; 0.022; 0.024;
        0.026; 0.028; 0.032; 0.036; 0.042; 0.066; 0.102; 0.251; 0.253; 0.255;
        0.257; 0.259; 0.265; 0.267; 0.269; 0.271; 0.273; 0.275; 0.279; 0.283;
        0.287; 0.293; 0.319; 0.501; 0.503; 0.505; 0.507; 0.509; 0.513; 0.517;
        0.521; 0.523; 0.525; 0.527; 0.529; 0.533; 0.537; 0.543; 0.567; 0.603;
        0.752; 0.754; 0.756; 0.758; 0.760; 0.766; 0.768; 0.770; 0.772; 0.774;
        0.776; 0.780; 0.784; 0.788; 0.794; 0.820; 1.000"
      values="-76.226; -75.987; -75.201; -73.889; -72.126; -63.544; -59.709;
        -58.089; -56.691; -55.519; -54.564; -53.244; -52.564; -52.331; -53.393;
        -53.478; -53.470; -53.788; -54.819; -56.489; -58.590; -65.483; -67.575;
        -69.460; -71.116; -72.536; -73.726; -75.470; -76.505; -77.015; -77.162;
        -76.250; -76.226; -75.987; -75.201; -73.889; -72.128; -67.895; -63.547;
        -59.711; -58.091; -56.693; -55.520; -54.565; -53.245; -52.565; -52.331;
        -53.393; -53.478; -53.470; -53.788; -54.819; -56.489; -58.590; -65.483;
        -67.575; -69.460; -71.116; -72.536; -73.726; -75.470; -76.505; -77.015;
        -77.162; -76.250; -76.226"/>
  </g>
  <g>
    <path
      vector-effect="non-scaling-stroke"
      fill-opacity="0"
      stroke-linecap="round"
      stroke-linejoin="round"
      stroke-width="14.545"
      stroke="#df813c"
      d="M -21.818,0.000 L 21.818,0.000"/>
    <animateTransform
      attributeName="transform"
      type="translate"
      additive="sum"
      repeatCount="indefinite"
      dur="10.000s"
      keyTimes="0.000; 0.002; 0.004; 0.006; 0.008; 0.010; 0.014; 0.016; 0.018;
        0.020; 0.022; 0.024; 0.026; 0.028; 0.030; 0.032; 0.034; 0.036; 0.038;
        0.040; 0.042; 0.044; 0.048; 0.056; 0.062; 0.068; 0.074; 0.086; 0.116;
        0.251; 0.253; 0.255; 0.257; 0.259; 0.261; 0.263; 0.265; 0.267; 0.269;
        0.271; 0.273; 0.275; 0.277; 0.279; 0.281; 0.283; 0.285; 0.287; 0.289;
        0.291; 0.293; 0.295; 0.299; 0.307; 0.313; 0.319; 0.325; 0.337; 0.367;
        0.501; 0.503; 0.505; 0.507; 0.509; 0.511; 0.515; 0.517; 0.519; 0.521;
        0.523; 0.525; 0.527; 0.529; 0.531; 0.533; 0.535; 0.537; 0.539; 0.541;
        0.543; 0.545; 0.549; 0.557; 0.563; 0.569; 0.575; 0.587; 0.617; 0.752;
        0.754; 0.756; 0.758; 0.760; 0.762; 0.764; 0.766; 0.768; 0.770; 0.772;
        0.774; 0.776; 0.778; 0.780; 0.782; 0.784; 0.786; 0.788; 0.790; 0.792;
        0.794; 0.796; 0.800; 0.808; 0.814; 0.820; 0.826; 0.838; 0.868; 1.000"
      values="-88.312,0; -86.102,0; -78.855,0; -66.818,0; -50.771,0;
        -32.333,0; 6.413,0; 24.824,0; 41.780,0; 56.945,0; 70.150,0; 81.356,0;
        90.621,0; 98.070,0; 103.873,0; 108.223,0; 111.327,0; 113.385,0;
        114.593,0; 115.127,0; 115.146,0; 114.788,0; 113.389,0; 109.937,0;
        107.958,0; 106.773,0; 106.233,0; 106.155,0; 106.510,0; 106.494,0;
        104.063,0; 96.091,0; 82.961,0; 66.089,0; 47.146,0; 27.492,0; 8.160,0;
        -10.104,0; -26.804,0; -41.645,0; -54.489,0; -65.324,0; -74.225,0;
        -81.331,0; -86.822,0; -90.896,0; -93.760,0; -95.618,0; -96.661,0;
        -97.064,0; -96.982,0; -96.550,0; -95.066,0; -91.601,0; -89.667,0;
        -88.531,0; -88.026,0; -87.978,0; -88.329,0; -88.312,0; -86.102,0;
        -78.855,0; -66.819,0; -50.782,0; -32.351,0; 6.389,0; 24.799,0;
        41.756,0; 56.923,0; 70.130,0; 81.339,0; 90.606,0; 98.058,0; 103.863,0;
        108.215,0; 111.320,0; 113.381,0; 114.590,0; 115.125,0; 115.145,0;
        114.788,0; 113.389,0; 109.938,0; 107.959,0; 106.774,0; 106.233,0;
        106.155,0; 106.510,0; 106.494,0; 104.063,0; 96.091,0; 82.961,0;
        66.089,0; 47.146,0; 27.492,0; 8.160,0; -10.104,0; -26.804,0; -41.645,0;
        -54.489,0; -65.324,0; -74.225,0; -81.331,0; -86.822,0; -90.896,0;
        -93.760,0; -95.618,0; -96.661,0; -97.064,0; -96.982,0; -96.550,0;
        -95.066,0; -91.601,0; -89.667,0; -88.531,0; -88.026,0; -87.978,0;
        -88.329,0; -88.312,0"/>
    <animateTransform
      attributeName="transform"
      type="rotate"
      additive="sum"
      repeatCount="indefinite"
      dur="10.000s"
      keyTimes="0.000; 0.002; 0.004; 0.006; 0.008; 0.016; 0.020; 0.022; 0.024;
        0.026; 0.028; 0.032; 0.036; 0.042; 0.066; 0.102; 0.251; 0.253; 0.255;
        0.257; 0.259; 0.265; 0.267; 0.269; 0.271; 0.273; 0.275; 0.279; 0.283;
        0.287; 0.293; 0.319; 0.501; 0.503; 0.505; 0.507; 0.509; 0.513; 0.517;
        0.521; 0.523; 0.525; 0.527; 0.529; 0.533; 0.537; 0.543; 0.567; 0.603;
        0.752; 0.754; 0.756; 0.758; 0.760; 0.766; 0.768; 0.770; 0.772; 0.774;
        0.776; 0.780; 0.784; 0.788; 0.794; 0.820; 1.000"
      values="-76.226; -75.987; -75.201; -73.889; -72.126; -63.544; -59.709;
        -58.089; -56.691; -55.519; -54.564; -53.244; -52.564; -52.331; -53.393;
        -53.478; -53.470; -53.788; -54.819; -56.489; -58.590; -65.483; -67.575;
        -69.460; -71.116; -72.536; -73.726; -75.470; -76.505; -77.015; -77.162;
        -76.250; -76.226; -75.987; -75.201; -73.889; -72.128; -67.895; -63.547;
        -59.711; -58.091; -56.693; -55.520; -54.565; -53.245; -52.565; -52.331;
        -53.393; -53.478; -53.470; -53.788; -54.819; -56.489; -58.590; -65.483;
        -67.575; -69.460; -71.116; -72.536; -73.726; -75.470; -76.505; -77.015;
        -77.162; -76.250; -76.226"/>
  </g>
  <g>
    <path
      vector-effect="non-scaling-stroke"
      fill-opacity="0"
      stroke-linecap="round"
      stroke-linejoin="round"
      stroke-width="14.545"
      stroke="#efaa4c"
      d="M -21.818,0.000 L 21.818,0.000"/>
    <animateTransform
      attributeName="transform"
      type="translate"
      additive="sum"
      repeatCount="indefinite"
      dur="10.000s"
      keyTimes="0.000; 0.002; 0.004; 0.006; 0.008; 0.016; 0.018; 0.020; 0.022;
        0.024; 0.026; 0.030; 0.034; 0.040; 0.052; 0.068; 0.251; 0.253; 0.255;
        0.257; 0.259; 0.267; 0.269; 0.271; 0.273; 0.275; 0.277; 0.281; 0.285;
        0.291; 0.305; 0.321; 0.501; 0.503; 0.505; 0.507; 0.509; 0.517; 0.519;
        0.521; 0.523; 0.525; 0.527; 0.531; 0.535; 0.541; 0.553; 0.569; 0.752;
        0.754; 0.756; 0.758; 0.760; 0.768; 0.770; 0.772; 0.774; 0.776; 0.778;
        0.782; 0.786; 0.792; 0.806; 0.822; 1.000"
      values="-202.597,0; -202.332,0; -201.463,0; -200.018,0; -198.093,0;
        -189.021,0; -186.986,0; -185.167,0; -183.582,0; -182.237,0; -181.125,0;
        -179.535,0; -178.641,0; -178.185,0; -178.604,0; -179.187,0; -179.221,0;
        -179.512,0; -180.469,0; -182.045,0; -184.069,0; -193.212,0; -195.217,0;
        -196.997,0; -198.539,0; -199.839,0; -200.907,0; -202.419,0; -203.251,0;
        -203.648,0; -203.089,0; -202.597,0; -202.597,0; -202.332,0; -201.463,0;
        -200.018,0; -198.094,0; -189.024,0; -186.989,0; -185.169,0; -183.584,0;
        -182.239,0; -181.127,0; -179.536,0; -178.642,0; -178.185,0; -178.604,0;
        -179.187,0; -179.221,0; -179.512,0; -180.469,0; -182.045,0; -184.069,0;
        -193.212,0; -195.217,0; -196.997,0; -198.539,0; -199.839,0; -200.907,0;
        -202.419,0; -203.251,0; -203.648,0; -203.089,0; -202.597,0; -202.597,0"/>
    <animateTransform
      attributeName="transform"
      type="rotate"
      additive="sum"
      repeatCount="indefinite"
      dur="10.000s"
      keyTimes="0.000; 0.002; 0.004; 0.006; 0.008; 0.016; 0.020; 0.022; 0.024;
        0.026; 0.028; 0.032; 0.036; 0.042; 0.066; 0.102; 0.251; 0.253; 0.255;
        0.257; 0.259; 0.265; 0.267; 0.269; 0.271; 0.273; 0.275; 0.279; 0.283;
        0.287; 0.293; 0.319; 0.501; 0.503; 0.505; 0.507; 0.509; 0.513; 0.517;
        0.521; 0.523; 0.525; 0.527; 0.529; 0.533; 0.537; 0.543; 0.567; 0.603;
        0.752; 0.754; 0.756; 0.758; 0.760; 0.766; 0.768; 0.770; 0.772; 0.774;
        0.776; 0.780; 0.784; 0.788; 0.794; 0.820; 1.000"
      values="76.226; 75.987; 75.201; 73.889; 72.126; 63.544; 59.709; 58.089;
        56.691; 55.519; 54.564; 53.244; 52.564; 52.331; 53.393; 53.478; 53.470;
        53.788; 54.819; 56.489; 58.590; 65.483; 67.575; 69.460; 71.116; 72.536;
        73.726; 75.470; 76.505; 77.015; 77.162; 76.250; 76.226; 75.987; 75.201;
        73.889; 72.128; 67.895; 63.547; 59.711; 58.091; 56.693; 55.520; 54.565;
        53.245; 52.565; 52.331; 53.393; 53.478; 53.470; 53.788; 54.819; 56.489;
        58.590; 65.483; 67.575; 69.460; 71.116; 72.536; 73.726; 75.470; 76.505;
        77.015; 77.162; 76.250; 76.226"/>
  </g>
  <g>
    <path
      vector-effect="non-scaling-stroke"
      fill-opacity="0"
      stroke-linecap="round"
      stroke-linejoin="round"
      stroke-width="14.545"
      stroke="#efaa4c"
      d="M -21.818,0.000 L 21.818,0.000"/>
    <animateTransform
      attributeName="transform"
      type="translate"
      additive="sum"
      repeatCount="indefinite"
      dur="10.000s"
      keyTimes="0.000; 0.002; 0.004; 0.006; 0.008; 0.010; 0.014; 0.016; 0.018;
        0.020; 0.022; 0.024; 0.026; 0.028; 0.030; 0.032; 0.034; 0.036; 0.040;
        0.046; 0.062; 0.074; 0.251; 0.253; 0.255; 0.257; 0.259; 0.263; 0.265;
        0.267; 0.269; 0.271; 0.273; 0.275; 0.277; 0.279; 0.281; 0.283; 0.285;
        0.287; 0.291; 0.297; 0.311; 0.323; 0.501; 0.503; 0.505; 0.507; 0.509;
        0.511; 0.515; 0.517; 0.519; 0.521; 0.523; 0.525; 0.527; 0.529; 0.531;
        0.533; 0.535; 0.537; 0.541; 0.547; 0.563; 0.575; 0.752; 0.754; 0.756;
        0.758; 0.760; 0.764; 0.766; 0.768; 0.770; 0.772; 0.774; 0.776; 0.778;
        0.780; 0.782; 0.784; 0.786; 0.788; 0.792; 0.798; 0.812; 0.824; 1.000"
      values="-181.818,0; -181.199,0; -179.170,0; -175.800,0; -171.307,0;
        -166.144,0; -155.295,0; -150.140,0; -145.393,0; -141.146,0; -137.449,0;
        -134.311,0; -131.717,0; -129.631,0; -128.007,0; -126.788,0; -125.919,0;
        -125.343,0; -124.855,0; -125.123,0; -126.863,0; -127.346,0; -127.273,0;
        -127.953,0; -130.185,0; -133.862,0; -138.586,0; -149.393,0; -154.806,0;
        -159.920,0; -164.596,0; -168.751,0; -172.348,0; -175.382,0; -177.874,0;
        -179.864,0; -181.401,0; -182.542,0; -183.344,0; -183.864,0; -184.269,0;
        -183.937,0; -182.353,0; -181.770,0; -181.818,0; -181.199,0; -179.170,0;
        -175.800,0; -171.310,0; -166.149,0; -155.302,0; -150.147,0; -145.399,0;
        -141.153,0; -137.455,0; -134.316,0; -131.721,0; -129.635,0; -128.009,0;
        -126.791,0; -125.921,0; -125.344,0; -124.856,0; -125.123,0; -126.862,0;
        -127.346,0; -127.273,0; -127.953,0; -130.185,0; -133.862,0; -138.586,0;
        -149.393,0; -154.806,0; -159.920,0; -164.596,0; -168.751,0; -172.348,0;
        -175.382,0; -177.874,0; -179.864,0; -181.401,0; -182.542,0; -183.344,0;
        -183.864,0; -184.269,0; -183.937,0; -182.353,0; -181.770,0; -181.818,0"/>
    <animateTransform
      attributeName="transform"
      type="rotate"
      additive="sum"
      repeatCount="indefinite"
      dur="10.000s"
      keyTimes="0.000; 0.002; 0.004; 0.006; 0.008; 0.016; 0.020; 0.022; 0.024;
        0.026; 0.028; 0.032; 0.036; 0.042; 0.066; 0.102; 0.251; 0.253; 0.255;
        0.257; 0.259; 0.265; 0.267; 0.269; 0.271; 0.273; 0.275; 0.279; 0.283;
        0.287; 0.293; 0.319; 0.501; 0.503; 0.505; 0.507; 0.509; 0.513; 0.517;
        0.521; 0.523; 0.525; 0.527; 0.529; 0.533; 0.537; 0.543; 0.567; 0.603;
        0.752; 0.754; 0.756; 0.758; 0.760; 0.766; 0.768; 0.770; 0.772; 0.774;
        0.776; 0.780; 0.784; 0.788; 0.794; 0.820; 1.000"
      values="76.226; 75.987; 75.201; 73.889; 72.126; 63.544; 59.709; 58.089;
        56.691; 55.519; 54.564; 53.244; 52.564; 52.331; 53.393; 53.478; 53.470;
        53.788; 54.819; 56.489; 58.590; 65.483; 67.575; 69.460; 71.116; 72.536;
        73.726; 75.470; 76.505; 77.015; 77.162; 76.250; 76.226; 75.987; 75.201;
        73.889; 72.128; 67.895; 63.547; 59.711; 58.091; 56.693; 55.520; 54.565;
        53.245; 52.565; 52.331; 53.393; 53.478; 53.470; 53.788; 54.819; 56.489;
        58.590; 65.483; 67.575; 69.460; 71.116; 72.536; 73.726; 75.470; 76.505;
        77.015; 77.162; 76.250; 76.226"/>
  </g>
  <g>
    <path
      vector-effect="non-scaling-stroke"
      fill-opacity="0"
      stroke-linecap="round"
      stroke-linejoin="round"
      stroke-width="14.545"
      stroke="#efaa4c"
      d="M -21.818,0.000 L 21.818,0.000"/>
    <animateTransform
      attributeName="transform"
      type="translate"
      additive="sum"
      repeatCount="indefinite"
      dur="10.000s"
      keyTimes="0.000; 0.002; 0.004; 0.006; 0.008; 0.010; 0.014; 0.016; 0.018;
        0.020; 0.022; 0.024; 0.026; 0.028; 0.030; 0.032; 0.034; 0.036; 0.038;
        0.040; 0.044; 0.060; 0.068; 0.080; 0.148; 0.251; 0.253; 0.255; 0.257;
        0.259; 0.261; 0.265; 0.267; 0.269; 0.271; 0.273; 0.275; 0.277; 0.279;
        0.281; 0.283; 0.285; 0.287; 0.289; 0.291; 0.295; 0.311; 0.319; 0.331;
        0.397; 0.501; 0.503; 0.505; 0.507; 0.509; 0.511; 0.515; 0.517; 0.519;
        0.521; 0.523; 0.525; 0.527; 0.529; 0.531; 0.533; 0.535; 0.537; 0.539;
        0.541; 0.545; 0.561; 0.569; 0.581; 0.649; 0.752; 0.754; 0.756; 0.758;
        0.760; 0.762; 0.766; 0.768; 0.770; 0.772; 0.774; 0.776; 0.778; 0.780;
        0.782; 0.784; 0.786; 0.788; 0.790; 0.792; 0.796; 0.812; 0.820; 0.832;
        0.898; 1.000"
      values="-161.039,0; -160.067,0; -156.878,0; -151.582,0; -144.521,0;
        -136.408,0; -119.360,0; -111.259,0; -103.799,0; -97.126,0; -91.316,0;
        -86.385,0; -82.308,0; -79.031,0; -76.478,0; -74.564,0; -73.198,0;
        -72.292,0; -71.761,0; -71.526,0; -71.675,0; -74.429,0; -75.202,0;
        -75.500,0; -75.325,0; -75.325,0; -76.394,0; -79.902,0; -85.679,0;
        -93.103,0; -101.437,0; -118.591,0; -126.628,0; -133.976,0; -140.506,0;
        -146.157,0; -150.924,0; -154.841,0; -157.968,0; -160.383,0; -162.176,0;
        -163.436,0; -164.254,0; -164.713,0; -164.890,0; -164.664,0; -161.879,0;
        -161.135,0; -160.862,0; -161.039,0; -161.039,0; -160.067,0; -156.878,0;
        -151.582,0; -144.526,0; -136.416,0; -119.371,0; -111.270,0; -103.809,0;
        -97.136,0; -91.325,0; -86.393,0; -82.315,0; -79.036,0; -76.482,0;
        -74.567,0; -73.201,0; -72.294,0; -71.762,0; -71.527,0; -71.675,0;
        -74.429,0; -75.201,0; -75.500,0; -75.325,0; -75.325,0; -76.394,0;
        -79.902,0; -85.679,0; -93.103,0; -101.437,0; -118.591,0; -126.628,0;
        -133.976,0; -140.506,0; -146.157,0; -150.924,0; -154.841,0; -157.968,0;
        -160.383,0; -162.176,0; -163.436,0; -164.254,0; -164.713,0; -164.890,0;
        -164.664,0; -161.879,0; -161.135,0; -160.862,0; -161.039,0; -161.039,0"/>
    <animateTransform
      attributeName="transform"
      type="rotate"
      additive="sum"
      repeatCount="indefinite"
      dur="10.000s"
      keyTimes="0.000; 0.002; 0.004; 0.006; 0.008; 0.016; 0.020; 0.022; 0.024;
        0.026; 0.028; 0.032; 0.036; 0.042; 0.066; 0.102; 0.251; 0.253; 0.255;
        0.257; 0.259; 0.265; 0.267; 0.269; 0.271; 0.273; 0.275; 0.279; 0.283;
        0.287; 0.293; 0.319; 0.501; 0.503; 0.505; 0.507; 0.509; 0.513; 0.517;
        0.521; 0.523; 0.525; 0.527; 0.529; 0.533; 0.537; 0.543; 0.567; 0.603;
        0.752; 0.754; 0.756; 0.758; 0.760; 0.766; 0.768; 0.770; 0.772; 0.774;
        0.776; 0.780; 0.784; 0.788; 0.794; 0.820; 1.000"
      values="76.226; 75.987; 75.201; 73.889; 72.126; 63.544; 59.709; 58.089;
        56.691; 55.519; 54.564; 53.244; 52.564; 52.331; 53.393; 53.478; 53.470;
        53.788; 54.819; 56.489; 58.590; 65.483; 67.575; 69.460; 71.116; 72.536;
        73.726; 75.470; 76.505; 77.015; 77.162; 76.250; 76.226; 75.987; 75.201;
        73.889; 72.128; 67.895; 63.547; 59.711; 58.091; 56.693; 55.520; 54.565;
        53.245; 52.565; 52.331; 53.393; 53.478; 53.470; 53.788; 54.819; 56.489;
        58.590; 65.483; 67.575; 69.460; 71.116; 72.536; 73.726; 75.470; 76.505;
        77.015; 77.162; 76.250; 76.226"/>
  </g>
  <g>
    <path
      vector-effect="non-scaling-stroke"
      fill-opacity="0"
      stroke-linecap="round"
      stroke-linejoin="round"
      stroke-width="14.545"
      stroke="#efaa4c"
      d="M -21.818,0.000 L 21.818,0.000"/>
    <animateTransform
      attributeName="transform"
      type="translate"
      additive="sum"
      repeatCount="indefinite"
      dur="10.000s"
      keyTimes="0.000; 0.002; 0.004; 0.006; 0.008; 0.010; 0.014; 0.016; 0.018;
        0.020; 0.022; 0.024; 0.026; 0.028; 0.030; 0.032; 0.034; 0.036; 0.038;
        0.040; 0.042; 0.046; 0.058; 0.064; 0.072; 0.086; 0.132; 0.251; 0.253;
        0.255; 0.257; 0.259; 0.261; 0.265; 0.267; 0.269; 0.271; 0.273; 0.275;
        0.277; 0.279; 0.281; 0.283; 0.285; 0.287; 0.289; 0.291; 0.293; 0.297;
        0.309; 0.315; 0.323; 0.337; 0.383; 0.501; 0.503; 0.505; 0.507; 0.509;
        0.511; 0.515; 0.517; 0.519; 0.521; 0.523; 0.525; 0.527; 0.529; 0.531;
        0.533; 0.535; 0.537; 0.539; 0.541; 0.543; 0.547; 0.559; 0.565; 0.573;
        0.587; 0.633; 0.752; 0.754; 0.756; 0.758; 0.760; 0.762; 0.766; 0.768;
        0.770; 0.772; 0.774; 0.776; 0.778; 0.780; 0.782; 0.784; 0.786; 0.788;
        0.790; 0.792; 0.794; 0.798; 0.810; 0.816; 0.824; 0.838; 0.884; 1.000"
      values="-140.260,0; -138.934,0; -134.586,0; -127.364,0; -117.735,0;
        -106.673,0; -83.425,0; -72.379,0; -62.205,0; -53.106,0; -45.183,0;
        -38.459,0; -32.900,0; -28.431,0; -24.949,0; -22.339,0; -20.477,0;
        -19.242,0; -18.517,0; -18.197,0; -18.185,0; -18.771,0; -21.759,0;
        -22.786,0; -23.459,0; -23.580,0; -23.371,0; -23.377,0; -24.835,0;
        -29.618,0; -37.496,0; -47.619,0; -58.985,0; -82.376,0; -93.335,0;
        -103.355,0; -112.260,0; -119.966,0; -126.467,0; -131.808,0; -136.072,0;
        -139.366,0; -141.810,0; -143.529,0; -144.644,0; -145.269,0; -145.511,0;
        -145.462,0; -144.801,0; -141.793,0; -140.795,0; -140.156,0; -140.060,0;
        -140.265,0; -140.260,0; -138.934,0; -134.586,0; -127.364,0; -117.742,0;
        -106.683,0; -83.439,0; -72.393,0; -62.219,0; -53.119,0; -45.195,0;
        -38.469,0; -32.909,0; -28.438,0; -24.955,0; -22.344,0; -20.480,0;
        -19.244,0; -18.519,0; -18.198,0; -18.186,0; -18.771,0; -21.758,0;
        -22.785,0; -23.459,0; -23.580,0; -23.371,0; -23.377,0; -24.835,0;
        -29.618,0; -37.496,0; -47.619,0; -58.985,0; -82.376,0; -93.335,0;
        -103.355,0; -112.260,0; -119.966,0; -126.467,0; -131.808,0; -136.072,0;
        -139.366,0; -141.810,0; -143.529,0; -144.644,0; -145.269,0; -145.511,0;
        -145.462,0; -144.801,0; -141.793,0; -140.795,0; -140.156,0; -140.060,0;
        -140.265,0; -140.260,0"/>
    <animateTransform
      attributeName="transform"
      type="rotate"
      additive="sum"
      repeatCount="indefinite"
      dur="10.000s"
      keyTimes="0.000; 0.002; 0.004; 0.006; 0.008; 0.016; 0.020; 0.022; 0.024;
        0.026; 0.028; 0.032; 0.036; 0.042; 0.066; 0.102; 0.251; 0.253; 0.255;
        0.257; 0.259; 0.265; 0.267; 0.269; 0.271; 0.273; 0.275; 0.279; 0.283;
        0.287; 0.293; 0.319; 0.501; 0.503; 0.505; 0.507; 0.509; 0.513; 0.517;
        0.521; 0.523; 0.525; 0.527; 0.529; 0.533; 0.537; 0.543; 0.567; 0.603;
        0.752; 0.754; 0.756; 0.758; 0.760; 0.766; 0.768; 0.770; 0.772; 0.774;
        0.776; 0.780; 0.784; 0.788; 0.794; 0.820; 1.000"
      values="76.226; 75.987; 75.201; 73.889; 72.126; 63.544; 59.709; 58.089;
        56.691; 55.519; 54.564; 53.244; 52.564; 52.331; 53.393; 53.478; 53.470;
        53.788; 54.819; 56.489; 58.590; 65.483; 67.575; 69.460; 71.116; 72.536;
        73.726; 75.470; 76.505; 77.015; 77.162; 76.250; 76.226; 75.987; 75.201;
        73.889; 72.128; 67.895; 63.547; 59.711; 58.091; 56.693; 55.520; 54.565;
        53.245; 52.565; 52.331; 53.393; 53.478; 53.470; 53.788; 54.819; 56.489;
        58.590; 65.483; 67.575; 69.460; 71.116; 72.536; 73.726; 75.470; 76.505;
        77.015; 77.162; 76.250; 76.226"/>
  </g>
  <g>
    <path
      vector-effect="non-scaling-stroke"
      fill-opacity="0"
      stroke-linecap="round"
      stroke-linejoin="round"
      stroke-width="14.545"
      stroke="#efaa4c"
      d="M -21.818,0.000 L 21.818,0.000"/>
    <animateTransform
      attributeName="transform"
      type="translate"
      additive="sum"
      repeatCount="indefinite"
      dur="10.000s"
      keyTimes="0.000; 0.002; 0.004; 0.006; 0.008; 0.010; 0.014; 0.016; 0.018;
        0.020; 0.022; 0.024; 0.026; 0.028; 0.030; 0.032; 0.034; 0.036; 0.038;
        0.040; 0.042; 0.046; 0.058; 0.064; 0.070; 0.080; 0.122; 0.251; 0.253;
        0.255; 0.257; 0.259; 0.261; 0.263; 0.265; 0.267; 0.269; 0.271; 0.273;
        0.275; 0.277; 0.279; 0.281; 0.283; 0.285; 0.287; 0.289; 0.291; 0.293;
        0.297; 0.309; 0.315; 0.321; 0.331; 0.373; 0.501; 0.503; 0.505; 0.507;
        0.509; 0.511; 0.515; 0.517; 0.519; 0.521; 0.523; 0.525; 0.527; 0.529;
        0.531; 0.533; 0.535; 0.537; 0.539; 0.541; 0.543; 0.547; 0.559; 0.565;
        0.571; 0.581; 0.623; 0.752; 0.754; 0.756; 0.758; 0.760; 0.762; 0.764;
        0.766; 0.768; 0.770; 0.772; 0.774; 0.776; 0.778; 0.780; 0.782; 0.784;
        0.786; 0.788; 0.790; 0.792; 0.794; 0.798; 0.810; 0.816; 0.822; 0.832;
        0.874; 1.000"
      values="-119.481,0; -117.801,0; -112.294,0; -103.145,0; -90.950,0;
        -76.937,0; -47.490,0; -33.498,0; -20.611,0; -9.086,0; 0.950,0; 9.467,0;
        16.509,0; 22.170,0; 26.580,0; 29.886,0; 32.245,0; 33.809,0; 34.727,0;
        35.133,0; 35.147,0; 34.406,0; 30.621,0; 29.320,0; 28.602,0; 28.269,0;
        28.585,0; 28.571,0; 26.724,0; 20.666,0; 10.687,0; -2.136,0; -16.532,0;
        -31.470,0; -46.162,0; -60.043,0; -72.735,0; -84.014,0; -93.776,0;
        -102.010,0; -108.775,0; -114.176,0; -118.348,0; -121.444,0; -123.621,0;
        -125.033,0; -125.826,0; -126.132,0; -126.070,0; -125.233,0; -121.422,0;
        -120.159,0; -119.475,0; -119.176,0; -119.494,0; -119.481,0; -117.801,0;
        -112.294,0; -103.146,0; -90.958,0; -76.950,0; -47.508,0; -33.516,0;
        -20.629,0; -9.102,0; 0.935,0; 9.454,0; 16.497,0; 22.160,0; 26.572,0;
        29.880,0; 32.240,0; 33.806,0; 34.725,0; 35.131,0; 35.146,0; 34.406,0;
        30.622,0; 29.320,0; 28.602,0; 28.269,0; 28.585,0; 28.571,0; 26.724,0;
        20.666,0; 10.687,0; -2.136,0; -16.532,0; -31.470,0; -46.162,0;
        -60.043,0; -72.735,0; -84.014,0; -93.776,0; -102.010,0; -108.775,0;
        -114.176,0; -118.348,0; -121.444,0; -123.621,0; -125.033,0; -125.826,0;
        -126.132,0; -126.070,0; -125.233,0; -121.422,0; -120.159,0; -119.475,0;
        -119.176,0; -119.494,0; -119.481,0"/>
    <animateTransform
      attributeName="transform"
      type="rotate"
      additive="sum"
      repeatCount="indefinite"
      dur="10.000s"
      keyTimes="0.000; 0.002; 0.004; 0.006; 0.008; 0.016; 0.020; 0.022; 0.024;
        0.026; 0.028; 0.032; 0.036; 0.042; 0.066; 0.102; 0.251; 0.253; 0.255;
        0.257; 0.259; 0.265; 0.267; 0.269; 0.271; 0.273; 0.275; 0.279; 0.283;
        0.287; 0.293; 0.319; 0.501; 0.503; 0.505; 0.507; 0.509; 0.513; 0.517;
        0.521; 0.523; 0.525; 0.527; 0.529; 0.533; 0.537; 0.543; 0.567; 0.603;
        0.752; 0.754; 0.756; 0.758; 0.760; 0.766; 0.768; 0.770; 0.772; 0.774;
        0.776; 0.780; 0.784; 0.788; 0.794; 0.820; 1.000"
      values="76.226; 75.987; 75.201; 73.889; 72.126; 63.544; 59.709; 58.089;
        56.691; 55.519; 54.564; 53.244; 52.564; 52.331; 53.393; 53.478; 53.470;
        53.788; 54.819; 56.489; 58.590; 65.483; 67.575; 69.460; 71.116; 72.536;
        73.726; 75.470; 76.505; 77.015; 77.162; 76.250; 76.226; 75.987; 75.201;
        73.889; 72.128; 67.895; 63.547; 59.711; 58.091; 56.693; 55.520; 54.565;
        53.245; 52.565; 52.331; 53.393; 53.478; 53.470; 53.788; 54.819; 56.489;
        58.590; 65.483; 67.575; 69.460; 71.116; 72.536; 73.726; 75.470; 76.505;
        77.015; 77.162; 76.250; 76.226"/>
  </g>
  <g>
    <path
      vector-effect="non-scaling-stroke"
      fill-opacity="0"
      stroke-linecap="round"
      stroke-linejoin="round"
      stroke-width="14.545"
      stroke="#efaa4c"
      d="M -21.818,0.000 L 21.818,0.000"/>
    <animateTransform
      attributeName="transform"
      type="translate"
      additive="sum"
      repeatCount="indefinite"
      dur="10.000s"
      keyTimes="0.000; 0.002; 0.004; 0.006; 0.008; 0.010; 0.014; 0.016; 0.018;
        0.020; 0.022; 0.024; 0.026; 0.028; 0.030; 0.032; 0.034; 0.036; 0.038;
        0.040; 0.042; 0.044; 0.048; 0.056; 0.062; 0.068; 0.076; 0.094; 0.134;
        0.251; 0.253; 0.255; 0.257; 0.259; 0.261; 0.263; 0.265; 0.267; 0.269;
        0.271; 0.273; 0.275; 0.277; 0.279; 0.281; 0.283; 0.285; 0.287; 0.289;
        0.291; 0.293; 0.295; 0.299; 0.307; 0.313; 0.319; 0.327; 0.375; 0.501;
        0.503; 0.505; 0.507; 0.509; 0.511; 0.515; 0.517; 0.519; 0.521; 0.523;
        0.525; 0.527; 0.529; 0.531; 0.533; 0.535; 0.537; 0.539; 0.541; 0.543;
        0.545; 0.549; 0.557; 0.563; 0.569; 0.577; 0.595; 0.635; 0.752; 0.754;
        0.756; 0.758; 0.760; 0.762; 0.764; 0.766; 0.768; 0.770; 0.772; 0.774;
        0.776; 0.778; 0.780; 0.782; 0.784; 0.786; 0.788; 0.790; 0.792; 0.794;
        0.796; 0.800; 0.808; 0.814; 0.820; 0.828; 0.876; 1.000"
      values="-98.701,0; -96.668,0; -90.001,0; -78.927,0; -64.164,0;
        -47.201,0; -11.555,0; 5.383,0; 20.983,0; 34.934,0; 47.083,0; 57.393,0;
        65.917,0; 72.770,0; 78.108,0; 82.111,0; 84.966,0; 86.860,0; 87.971,0;
        88.462,0; 88.480,0; 88.150,0; 86.863,0; 83.688,0; 81.867,0; 80.777,0;
        80.207,0; 80.353,0; 80.527,0; 80.519,0; 78.283,0; 70.950,0; 58.870,0;
        43.347,0; 25.920,0; 7.838,0; -9.947,0; -26.750,0; -42.115,0; -55.768,0;
        -67.585,0; -77.553,0; -85.742,0; -92.279,0; -97.331,0; -101.079,0;
        -103.714,0; -105.423,0; -106.383,0; -106.754,0; -106.678,0; -106.281,0;
        -104.915,0; -101.727,0; -99.948,0; -98.903,0; -98.374,0; -98.716,0;
        -98.701,0; -96.668,0; -90.001,0; -78.928,0; -64.174,0; -47.218,0;
        -11.577,0; 5.361,0; 20.961,0; 34.914,0; 47.065,0; 57.377,0; 65.903,0;
        72.759,0; 78.099,0; 82.104,0; 84.960,0; 86.856,0; 87.968,0; 88.460,0;
        88.479,0; 88.150,0; 86.864,0; 83.689,0; 81.867,0; 80.777,0; 80.207,0;
        80.353,0; 80.527,0; 80.519,0; 78.283,0; 70.950,0; 58.870,0; 43.347,0;
        25.920,0; 7.838,0; -9.947,0; -26.750,0; -42.115,0; -55.768,0;
        -67.585,0; -77.553,0; -85.742,0; -92.279,0; -97.331,0; -101.079,0;
        -103.714,0; -105.423,0; -106.383,0; -106.754,0; -106.678,0; -106.281,0;
        -104.915,0; -101.727,0; -99.948,0; -98.903,0; -98.374,0; -98.716,0;
        -98.701,0"/>
    <animateTransform
      attributeName="transform"
      type="rotate"
      additive="sum"
      repeatCount="indefinite"
      dur="10.000s"
      keyTimes="0.000; 0.002; 0.004; 0.006; 0.008; 0.016; 0.020; 0.022; 0.024;
        0.026; 0.028; 0.032; 0.036; 0.042; 0.066; 0.102; 0.251; 0.253; 0.255;
        0.257; 0.259; 0.265; 0.267; 0.269; 0.271; 0.273; 0.275; 0.279; 0.283;
        0.287; 0.293; 0.319; 0.501; 0.503; 0.505; 0.507; 0.509; 0.513; 0.517;
        0.521; 0.523; 0.525; 0.527; 0.529; 0.533; 0.537; 0.543; 0.567; 0.603;
        0.752; 0.754; 0.756; 0.758; 0.760; 0.766; 0.768; 0.770; 0.772; 0.774;
        0.776; 0.780; 0.784; 0.788; 0.794; 0.820; 1.000"
      values="76.226; 75.987; 75.201; 73.889; 72.126; 63.544; 59.709; 58.089;
        56.691; 55.519; 54.564; 53.244; 52.564; 52.331; 53.393; 53.478; 53.470;
        53.788; 54.819; 56.489; 58.590; 65.483; 67.575; 69.460; 71.116; 72.536;
        73.726; 75.470; 76.505; 77.015; 77.162; 76.250; 76.226; 75.987; 75.201;
        73.889; 72.128; 67.895; 63.547; 59.711; 58.091; 56.693; 55.520; 54.565;
        53.245; 52.565; 52.331; 53.393; 53.478; 53.470; 53.788; 54.819; 56.489;
        58.590; 65.483; 67.575; 69.460; 71.116; 72.536; 73.726; 75.470; 76.505;
        77.015; 77.162; 76.250; 76.226"/>
  </g>
  <g>
    <path
      vector-effect="non-scaling-stroke"
      fill-opacity="0"
      stroke-linecap="round"
      stroke-linejoin="round"
      stroke-width="14.545"
      stroke="#efaa4c"
      d="M -21.818,0.000 L 21.818,0.000"/>
    <animateTransform
      attributeName="transform"
      type="translate"
      additive="sum"
      repeatCount="indefinite"
      dur="10.000s"
      keyTimes="0.000; 0.002; 0.004; 0.006; 0.008; 0.010; 0.014; 0.016; 0.018;
        0.020; 0.022; 0.024; 0.026; 0.028; 0.030; 0.032; 0.034; 0.036; 0.038;
        0.040; 0.042; 0.044; 0.048; 0.056; 0.062; 0.068; 0.074; 0.084; 0.114;
        0.251; 0.253; 0.255; 0.257; 0.259; 0.261; 0.263; 0.265; 0.267; 0.269;
        0.271; 0.273; 0.275; 0.277; 0.279; 0.281; 0.283; 0.285; 0.287; 0.289;
        0.291; 0.293; 0.295; 0.299; 0.307; 0.313; 0.319; 0.325; 0.337; 0.365;
        0.501; 0.503; 0.505; 0.507; 0.509; 0.511; 0.515; 0.517; 0.519; 0.521;
        0.523; 0.525; 0.527; 0.529; 0.531; 0.533; 0.535; 0.537; 0.539; 0.541;
        0.543; 0.545; 0.549; 0.557; 0.563; 0.569; 0.575; 0.585; 0.615; 0.752;
        0.754; 0.756; 0.758; 0.760; 0.762; 0.764; 0.766; 0.768; 0.770; 0.772;
        0.774; 0.776; 0.778; 0.780; 0.782; 0.784; 0.786; 0.788; 0.790; 0.792;
        0.794; 0.796; 0.800; 0.808; 0.814; 0.820; 0.826; 0.838; 0.866; 1.000"
      values="-77.922,0; -75.535,0; -67.709,0; -54.709,0; -37.378,0;
        -17.465,0; 24.381,0; 44.264,0; 62.576,0; 78.955,0; 93.216,0; 105.319,0;
        115.326,0; 123.371,0; 129.637,0; 134.336,0; 137.687,0; 139.911,0;
        141.215,0; 141.791,0; 141.812,0; 141.425,0; 139.914,0; 136.187,0;
        134.049,0; 132.770,0; 132.186,0; 132.068,0; 132.482,0; 132.468,0;
        129.842,0; 121.233,0; 107.053,0; 88.831,0; 68.373,0; 47.145,0;
        26.268,0; 6.542,0; -11.494,0; -27.522,0; -41.394,0; -53.095,0;
        -62.708,0; -70.383,0; -76.313,0; -80.713,0; -83.806,0; -85.813,0;
        -86.939,0; -87.375,0; -87.286,0; -86.820,0; -85.217,0; -81.474,0;
        -79.386,0; -78.159,0; -77.614,0; -77.562,0; -77.938,0; -77.922,0;
        -75.535,0; -67.709,0; -54.710,0; -37.390,0; -17.485,0; 24.355,0;
        44.238,0; 62.551,0; 78.931,0; 93.195,0; 105.301,0; 115.309,0;
        123.357,0; 129.626,0; 134.327,0; 137.681,0; 139.906,0; 141.212,0;
        141.789,0; 141.811,0; 141.425,0; 139.915,0; 136.188,0; 134.050,0;
        132.770,0; 132.186,0; 132.068,0; 132.482,0; 132.468,0; 129.842,0;
        121.233,0; 107.053,0; 88.831,0; 68.373,0; 47.145,0; 26.268,0; 6.542,0;
        -11.494,0; -27.522,0; -41.394,0; -53.095,0; -62.708,0; -70.383,0;
        -76.313,0; -80.713,0; -83.806,0; -85.813,0; -86.939,0; -87.375,0;
        -87.286,0; -86.820,0; -85.217,0; -81.474,0; -79.386,0; -78.159,0;
        -77.614,0; -77.562,0; -77.938,0; -77.922,0"/>
    <animateTransform
      attributeName="transform"
      type="rotate"
      additive="sum"
      repeatCount="indefinite"
      dur="10.000s"
      keyTimes="0.000; 0.002; 0.004; 0.006; 0.008; 0.016; 0.020; 0.022; 0.024;
        0.026; 0.028; 0.032; 0.036; 0.042; 0.066; 0.102; 0.251; 0.253; 0.255;
        0.257; 0.259; 0.265; 0.267; 0.269; 0.271; 0.273; 0.275; 0.279; 0.283;
        0.287; 0.293; 0.319; 0.501; 0.503; 0.505; 0.507; 0.509; 0.513; 0.517;
        0.521; 0.523; 0.525; 0.527; 0.529; 0.533; 0.537; 0.543; 0.567; 0.603;
        0.752; 0.754; 0.756; 0.758; 0.760; 0.766; 0.768; 0.770; 0.772; 0.774;
        0.776; 0.780; 0.784; 0.788; 0.794; 0.820; 1.000"
      values="76.226; 75.987; 75.201; 73.889; 72.126; 63.544; 59.709; 58.089;
        56.691; 55.519; 54.564; 53.244; 52.564; 52.331; 53.393; 53.478; 53.470;
        53.788; 54.819; 56.489; 58.590; 65.483; 67.575; 69.460; 71.116; 72.536;
        73.726; 75.470; 76.505; 77.015; 77.162; 76.250; 76.226; 75.987; 75.201;
        73.889; 72.128; 67.895; 63.547; 59.711; 58.091; 56.693; 55.520; 54.565;
        53.245; 52.565; 52.331; 53.393; 53.478; 53.470; 53.788; 54.819; 56.489;
        58.590; 65.483; 67.575; 69.460; 71.116; 72.536; 73.726; 75.470; 76.505;
        77.015; 77.162; 76.250; 76.226"/>
  </g>
  <path
    fill="#e7e7e7"
    d="M -247.273,145.455 L -218.182,145.455 -218.182,72.727 -145.455,72.727
      -145.455,43.636 -218.182,43.636 -218.182,-43.636 -145.455,-43.636
      -145.455,-72.727 -218.182,-72.727 -218.182,-145.455 -247.273,-145.455 z"/>
  <path
    fill="#e7e7e7"
    d="M 363.636,145.455 L 392.727,145.455 392.727,-145.455 363.636,-145.455 z"/>
  <g>
    <path
      fill="#6a8199"
      d="M -72.727,72.727 L 72.727,72.727 72.727,-72.727 -72.727,-72.727 z"/>
    <path
      fill="#475666"
      d="M -7.273,72.727 L 7.273,72.727 7.273,-72.727 -7.273,-72.727 z"/>
    <path
      fill="#6a8199"
      d="M -1.455,72.727 L 1.455,72.727 1.455,-72.727 -1.455,-72.727 z"/>
    <animateTransform
      attributeName="transform"
      type="translate"
      additive="sum"
      repeatCount="indefinite"
      dur="10.000s"
      keyTimes="0.000; 0.002; 0.004; 0.006; 0.008; 0.010; 0.014; 0.016; 0.018;
        0.020; 0.022; 0.024; 0.026; 0.028; 0.030; 0.032; 0.034; 0.036; 0.038;
        0.040; 0.042; 0.044; 0.048; 0.056; 0.062; 0.068; 0.074; 0.084; 0.114;
        0.251; 0.253; 0.255; 0.257; 0.259; 0.261; 0.263; 0.265; 0.267; 0.269;
        0.271; 0.273; 0.275; 0.277; 0.279; 0.281; 0.283; 0.285; 0.287; 0.289;
        0.291; 0.293; 0.295; 0.299; 0.307; 0.311; 0.315; 0.321; 0.329; 0.367;
        0.501; 0.503; 0.505; 0.507; 0.509; 0.511; 0.515; 0.517; 0.519; 0.521;
        0.523; 0.525; 0.527; 0.529; 0.531; 0.533; 0.535; 0.537; 0.539; 0.541;
        0.543; 0.545; 0.549; 0.557; 0.563; 0.569; 0.575; 0.585; 0.615; 0.752;
        0.754; 0.756; 0.758; 0.760; 0.762; 0.764; 0.766; 0.768; 0.770; 0.772;
        0.774; 0.776; 0.778; 0.780; 0.782; 0.784; 0.786; 0.788; 0.790; 0.792;
        0.794; 0.796; 0.800; 0.808; 0.812; 0.816; 0.822; 0.830; 0.868; 1.000"
      values="0,0; 2.475,0; 10.591,0; 24.073,0; 42.045,0; 62.696,0; 106.092,0;
        126.711,0; 145.702,0; 162.687,0; 177.477,0; 190.028,0; 200.405,0;
        208.748,0; 215.247,0; 220.119,0; 223.595,0; 225.901,0; 227.253,0;
        227.851,0; 227.872,0; 227.471,0; 225.905,0; 222.039,0; 219.822,0;
        218.495,0; 217.890,0; 217.767,0; 218.197,0; 218.182,0; 215.459,0;
        206.532,0; 191.826,0; 172.929,0; 151.713,0; 129.700,0; 108.049,0;
        87.593,0; 68.888,0; 52.267,0; 37.881,0; 25.746,0; 15.777,0; 7.818,0;
        1.669,0; -2.894,0; -6.102,0; -8.183,0; -9.351,0; -9.803,0; -9.711,0;
        -9.227,0; -7.565,0; -3.684,0; -2.138,0; -1.000,0; 0.008,0; 0.439,0;
        -0.019,0; 0,0; 2.475,0; 10.591,0; 24.072,0; 42.033,0; 62.676,0;
        106.065,0; 126.684,0; 145.676,0; 162.663,0; 177.455,0; 190.009,0;
        200.388,0; 208.734,0; 215.235,0; 220.110,0; 223.588,0; 225.896,0;
        227.250,0; 227.849,0; 227.871,0; 227.471,0; 225.905,0; 222.040,0;
        219.823,0; 218.496,0; 217.890,0; 217.767,0; 218.197,0; 218.182,0;
        215.459,0; 206.532,0; 191.826,0; 172.929,0; 151.713,0; 129.700,0;
        108.049,0; 87.593,0; 68.888,0; 52.267,0; 37.881,0; 25.746,0; 15.777,0;
        7.818,0; 1.669,0; -2.894,0; -6.102,0; -8.183,0; -9.351,0; -9.803,0;
        -9.711,0; -9.227,0; -7.565,0; -3.684,0; -2.138,0; -1.000,0; 0.008,0;
        0.439,0; -0.019,0; 0,0"/>
  </g>
  <g>
    <path
      vector-effect="non-scaling-stroke"
      fill-opacity="0"
      stroke-linecap="round"
      stroke-linejoin="round"
      stroke-width="6.400"
      stroke="#000000"
      opacity="0.100"
      d="M -72.727,-0.000 L 72.727,-0.000"/>
    <animateTransform
      attributeName="transform"
      type="translate"
      additive="sum"
      repeatCount="indefinite"
      dur="10.000s"
      values="-242.473,144.400; 71.127,144.400"/>
    <animateTransform
      attributeName="transform"
      type="scale"
      additive="sum"
      repeatCount="indefinite"
      dur="10.000s"
      values="0.044; 4.400"/>
  </g>
</svg>